{
  "type": "tab",
  "id": "c765b7eb.5b4628",
  "label": "Flow 1",
  "flow": [
    {
      "id": "2aed3f84.bf4d08",
      "type": "http in",
      "z": "c765b7eb.5b4628",
      "name": "",
      "url": "/test",
      "method": "get",
      "swaggerDoc": "",
      "x": 137,
      "y": 156,
      "wires": [
        [
          "f073d69a.65b128",
          "b6ab3b6b.a2c29"
        ]
      ]
    },
    {
      "id": "f073d69a.65b128",
      "type": "debug",
      "z": "c765b7eb.5b4628",
      "name": "",
      "active": true,
      "console": "false",
      "complete": "false",
      "x": 324,
      "y": 194,
      "wires": []
    },
    {
      "id": "a010ab9d.465dd",
      "type": "http response",
      "z": "c765b7eb.5b4628",
      "name": "",
      "x": 489,
      "y": 76,
      "wires": []
    },
    {
      "id": "b6ab3b6b.a2c29",
      "type": "template",
      "z": "c765b7eb.5b4628",
      "name": "",
      "field": "payload",
      "fieldType": "msg",
      "format": "handlebars",
      "template": "This is the payload: {{payload}} !",
      "x": 303,
      "y": 115.33000183105469,
      "wires": [
        [
          "a010ab9d.465dd"
        ]
      ]
    },
    {
      "id": "20d8b883.4968",
      "type": "inject",
      "z": "c765b7eb.5b4628",
      "name": "",
      "topic": "",
      "payload": "\"a\":\"6\"",
      "payloadType": "json",
      "repeat": "",
      "crontab": "",
      "once": false,
      "x": 81,
      "y": 43,
      "wires": [
        [
          "b6ab3b6b.a2c29"
        ]
      ]
    },
    {
      "id": "47a7758f.ff13cc",
      "type": "http in",
      "z": "c765b7eb.5b4628",
      "name": "",
      "url": "/stop",
      "method": "get",
      "swaggerDoc": "",
      "x": 92,
      "y": 255,
      "wires": [
        [
          "f073d69a.65b128",
          "482f6ceb.e12ec4"
        ]
      ]
    },
    {
      "id": "c6e932b3.fbd1b",
      "type": "http response",
      "z": "c765b7eb.5b4628",
      "name": "",
      "x": 459,
      "y": 407,
      "wires": []
    },
    {
      "id": "482f6ceb.e12ec4",
      "type": "template",
      "z": "c765b7eb.5b4628",
      "name": "",
      "field": "payload",
      "fieldType": "msg",
      "format": "handlebars",
      "template": "Stopped!",
      "x": 223,
      "y": 356,
      "wires": [
        [
          "c6e932b3.fbd1b"
        ]
      ]
    }
  ]
}